{
 "type":"object",
 "properties":{
   "resource": {"type":"string"},
   "total":{"type":"string"},
   "members":{"type":"integer"},
   "item_list": {  
     "type": "array",
     "items": {
		"type":"object",
		"properties":{
			"id":{"type":"string"},
			"item":{"type":"string"}
		}
	 }
    }
   }
}
