{
  "type": "object",
  "properties": {
    "plan_act_id": {
      "type": "string"
    },
    "sla_id": {
      "type": "string"
    },
    "sla_state": {
      "type": "string"
    },
    "supply_chain_id": {
      "type": "string"
    },
    "impl_act_id": {
      "type": "string"
    },
    "creation_time": {
      "type": "number"
    },
    "state": {
      "type": "enum",
      "values":[
        "CREATED",
        "BUILDING",
        "IMPLEMENTING",
        "ACTIVE",
        "ERROR"
      ]
    },
    "plans_num": {
      "type": "integer"
    },
    "active_plan_id": {
      "type": "string"
    },
    "plans_list": {
      "type": "array",
      "items": {
        "type": "string"
      }
    },
    "reconfigurations": {
      "type": "array",
      "items": {
        "type": "string"
      }
    }
  }
}
